%YAML 1.1
%TAG !u! tag:unity3d.com,2011:
--- !u!114 &11400000
MonoBehaviour:
  m_ObjectHideFlags: 8
  m_CorrespondingSourceObject: {fileID: 0}
  m_PrefabInstance: {fileID: 0}
  m_PrefabAsset: {fileID: 0}
  m_GameObject: {fileID: 0}
  m_Enabled: 1
  m_EditorHideFlags: 0
  m_Script: {fileID: 11500000, guid: c4e0799fbe79ebd418be685903fe267c, type: 3}
  m_Name: SelectionData_030
  m_EditorClassIdentifier: 
  _selectionText: "\u304A\u75B2\u308C\u3001\u7D05\u8336\u3067\u3082\u98F2\u3080\uFF1F"
  _parameterIncreaseValue:
    m_keys: 0300000005000000
    m_values:
    - _valueType: 1
      _value: 10
    - _valueType: 1
      _value: 10
