%YAML 1.1
%TAG !u! tag:unity3d.com,2011:
--- !u!114 &11400000
MonoBehaviour:
  m_ObjectHideFlags: 8
  m_CorrespondingSourceObject: {fileID: 0}
  m_PrefabInstance: {fileID: 0}
  m_PrefabAsset: {fileID: 0}
  m_GameObject: {fileID: 0}
  m_Enabled: 1
  m_EditorHideFlags: 0
  m_Script: {fileID: 11500000, guid: c4e0799fbe79ebd418be685903fe267c, type: 3}
  m_Name: SelectionData_034
  m_EditorClassIdentifier: 
  _selectionText: "\u6B69\u3044\u3066\u5411\u304B\u3046"
  _parameterIncreaseValue:
    m_keys: 020000000500000007000000
    m_values:
    - _valueType: 1
      _value: 10
    - _valueType: 1
      _value: 10
    - _valueType: 1
      _value: 10
