%YAML 1.1
%TAG !u! tag:unity3d.com,2011:
--- !u!114 &11400000
MonoBehaviour:
  m_ObjectHideFlags: 8
  m_CorrespondingSourceObject: {fileID: 0}
  m_PrefabInstance: {fileID: 0}
  m_PrefabAsset: {fileID: 0}
  m_GameObject: {fileID: 0}
  m_Enabled: 1
  m_EditorHideFlags: 0
  m_Script: {fileID: 11500000, guid: c4e0799fbe79ebd418be685903fe267c, type: 3}
  m_Name: SelectionData_019
  m_EditorClassIdentifier: 
  _selectionText: "\u5F37\u5316\u8CBB\u3092\u5897\u984D\u3059\u308B"
  _parameterIncreaseValue:
    m_keys: 0200000000000000
    m_values:
    - _valueType: 1
      _value: 10
    - _valueType: 1
      _value: -5
