%YAML 1.1
%TAG !u! tag:unity3d.com,2011:
--- !u!114 &11400000
MonoBehaviour:
  m_ObjectHideFlags: 0
  m_CorrespondingSourceObject: {fileID: 0}
  m_PrefabInstance: {fileID: 0}
  m_PrefabAsset: {fileID: 0}
  m_GameObject: {fileID: 0}
  m_Enabled: 1
  m_EditorHideFlags: 0
  m_Script: {fileID: 11500000, guid: bbb281ee3bf0b054c82ac2347e9e782c, type: 3}
  m_Name: ForegroundSceneGroup
  m_EditorClassIdentifier: 
  m_GroupName: ForegroundSceneGroup
  m_Data:
    m_SerializedData: []
  m_GUID: da8ad9e378fb90545bbb42a59b1a19dc
  m_SerializeEntries:
  - m_GUID: 0e0d8220ead570446afbb941da7aa705
    m_Address: Dummy
    m_ReadOnly: 0
    m_SerializedLabels: []
    m_MainAsset: {fileID: 0}
    m_TargetAsset: {fileID: 0}
  - m_GUID: 5154c1b088544e545bc88150813b49cc
    m_Address: interview_desk
    m_ReadOnly: 0
    m_SerializedLabels: []
    m_MainAsset: {fileID: 0}
    m_TargetAsset: {fileID: 0}
  - m_GUID: d4ca553cc51355f41a8f43585b78933e
    m_Address: interview_desk_short
    m_ReadOnly: 0
    m_SerializedLabels: []
    m_MainAsset: {fileID: 0}
    m_TargetAsset: {fileID: 0}
  - m_GUID: 5169cf69183039f40ade16fedf33a00a
    m_Address: PrologueDesk
    m_ReadOnly: 0
    m_SerializedLabels: []
    m_MainAsset: {fileID: 2800000, guid: 5169cf69183039f40ade16fedf33a00a, type: 3}
    m_TargetAsset: {fileID: 2800000, guid: 5169cf69183039f40ade16fedf33a00a, type: 3}
  m_ReadOnly: 0
  m_Settings: {fileID: 11400000, guid: 89914172f5b30b54c8be0a31b60c240b, type: 2}
  m_SchemaSet:
    m_Schemas:
    - {fileID: 11400000, guid: 69890e48d62353f4c8d645afede4af63, type: 2}
    - {fileID: 11400000, guid: 61611e94bcb4762459ed8d3e70f1cdf5, type: 2}
