%YAML 1.1
%TAG !u! tag:unity3d.com,2011:
--- !u!114 &11400000
MonoBehaviour:
  m_ObjectHideFlags: 0
  m_CorrespondingSourceObject: {fileID: 0}
  m_PrefabInstance: {fileID: 0}
  m_PrefabAsset: {fileID: 0}
  m_GameObject: {fileID: 0}
  m_Enabled: 1
  m_EditorHideFlags: 0
  m_Script: {fileID: 11500000, guid: bbb281ee3bf0b054c82ac2347e9e782c, type: 3}
  m_Name: SelectionDataGroup
  m_EditorClassIdentifier: 
  m_GroupName: SelectionDataGroup
  m_Data:
    m_SerializedData: []
  m_GUID: 04d0d478649c12a42b7e998bc4093eb3
  m_SerializeEntries:
  - m_GUID: f90c1b9b874b1fd46b19e17a7c628306
    m_Address: "\u7D9A\u6295\u3055\u305B\u308B"
    m_ReadOnly: 0
    m_SerializedLabels:
    - SelectionData
    m_MainAsset: {fileID: 0}
    m_TargetAsset: {fileID: 0}
  - m_GUID: 4ae924099d9197d4db2ece886d8e5ad3
    m_Address: "\u6F14\u51FA\u5BB6\u3092\u4EA4\u4EE3\u3059\u308B"
    m_ReadOnly: 0
    m_SerializedLabels:
    - SelectionData
    m_MainAsset: {fileID: 0}
    m_TargetAsset: {fileID: 0}
  - m_GUID: 72dcecd7d549c2244833b3aff8fb85ed
    m_Address: "\u90FD\u77E5\u4E8B\u306E\u610F\u898B\u3092\u63A1\u7528\u3059\u308B"
    m_ReadOnly: 0
    m_SerializedLabels:
    - SelectionData
    m_MainAsset: {fileID: 0}
    m_TargetAsset: {fileID: 0}
  - m_GUID: 6258971fb0b9949439ff60733b76d27a
    m_Address: "\u6F14\u51FA\u5BB6\u306E\u610F\u898B\u3092\u63A1\u7528\u3059\u308B"
    m_ReadOnly: 0
    m_SerializedLabels:
    - SelectionData
    m_MainAsset: {fileID: 0}
    m_TargetAsset: {fileID: 0}
  - m_GUID: 8a9d5a1365d2cb640905f24222fda584
    m_Address: "\u30A4\u30D9\u30F3\u30C8\u3092\u958B\u50AC\u3059\u308B"
    m_ReadOnly: 0
    m_SerializedLabels:
    - SelectionData
    m_MainAsset: {fileID: 0}
    m_TargetAsset: {fileID: 0}
  - m_GUID: 67302c58f2b388e46abfe9279757143c
    m_Address: "\u6709\u540D\u4EBA\u3092\u8D77\u7528\u3059\u308B"
    m_ReadOnly: 0
    m_SerializedLabels:
    - SelectionData
    m_MainAsset: {fileID: 0}
    m_TargetAsset: {fileID: 0}
  - m_GUID: f76a1ece7b3233045ab582371dbab174
    m_Address: "\u4F9D\u983C\u3092\u65AD\u308B"
    m_ReadOnly: 0
    m_SerializedLabels:
    - SelectionData
    m_MainAsset: {fileID: 0}
    m_TargetAsset: {fileID: 0}
  - m_GUID: 129990dc60c728946b281efebeab3b89
    m_Address: "\u5EA7\u5E2D\u3092\u78BA\u4FDD\u3059\u308B"
    m_ReadOnly: 0
    m_SerializedLabels:
    - SelectionData
    m_MainAsset: {fileID: 0}
    m_TargetAsset: {fileID: 0}
  - m_GUID: e57017a7da8613148a5f6a0948f81ee1
    m_Address: "\u6C34\u8CEA\u6539\u5584\u306E\u5BFE\u7B56\u3092\u3059\u308B"
    m_ReadOnly: 0
    m_SerializedLabels:
    - SelectionData
    m_MainAsset: {fileID: 0}
    m_TargetAsset: {fileID: 0}
  - m_GUID: 9b291c3f89a1b6444b12a4ba6438b2bc
    m_Address: "\u4F1A\u5834\u3092\u5909\u66F4\u3059\u308B"
    m_ReadOnly: 0
    m_SerializedLabels:
    - SelectionData
    m_MainAsset: {fileID: 0}
    m_TargetAsset: {fileID: 0}
  - m_GUID: a09420b39b80fde4398b54ef622b01f7
    m_Address: "\u6691\u3055\u5BFE\u7B56\u306E\u5DE5\u4E8B\u3092\u884C\u3046"
    m_ReadOnly: 0
    m_SerializedLabels:
    - SelectionData
    m_MainAsset: {fileID: 0}
    m_TargetAsset: {fileID: 0}
  - m_GUID: 3f87d95f82beec840a8c1ac85cdcd5a1
    m_Address: "\u6253\u3061\u6C34\u3092\u884C\u3046"
    m_ReadOnly: 0
    m_SerializedLabels:
    - SelectionData
    m_MainAsset: {fileID: 0}
    m_TargetAsset: {fileID: 0}
  - m_GUID: 4b975fc9740e4b2419fab921259b1dbc
    m_Address: "\u516C\u52DF\u3059\u308B"
    m_ReadOnly: 0
    m_SerializedLabels:
    - SelectionData
    m_MainAsset: {fileID: 0}
    m_TargetAsset: {fileID: 0}
  - m_GUID: 0442f72de87864040ace075f19a517d1
    m_Address: "\u30B9\u30DD\u30F3\u30B5\u30FC\u67A0\u306B\u3059\u308B"
    m_ReadOnly: 0
    m_SerializedLabels:
    - SelectionData
    m_MainAsset: {fileID: 0}
    m_TargetAsset: {fileID: 0}
  - m_GUID: a24e38a642c0dd8449726ed4dffdbb1d
    m_Address: "\u30C6\u30EC\u30D3\u3067\u5BA3\u4F1D\u3092\u884C\u3046"
    m_ReadOnly: 0
    m_SerializedLabels:
    - SelectionData
    m_MainAsset: {fileID: 0}
    m_TargetAsset: {fileID: 0}
  - m_GUID: 023bcf460793fe145937de55879b95c1
    m_Address: "\u30CD\u30C3\u30C8\u3067\u5BA3\u4F1D\u3092\u884C\u3046"
    m_ReadOnly: 0
    m_SerializedLabels:
    - SelectionData
    m_MainAsset: {fileID: 0}
    m_TargetAsset: {fileID: 0}
  - m_GUID: c8bf00703e4347043b9c4b352818631c
    m_Address: "\u8863\u88C5\u306E\u30C7\u30B6\u30A4\u30F3\u3092\u5909\u66F4\u3059\u308B"
    m_ReadOnly: 0
    m_SerializedLabels:
    - SelectionData
    m_MainAsset: {fileID: 0}
    m_TargetAsset: {fileID: 0}
  - m_GUID: 1e5bf821d073aa04d83f2529f74ebdf4
    m_Address: "\u8863\u88C5\u306E\u30C7\u30B6\u30A4\u30F3\u3092\u5909\u66F4\u3057\u306A\u3044"
    m_ReadOnly: 0
    m_SerializedLabels:
    - SelectionData
    m_MainAsset: {fileID: 0}
    m_TargetAsset: {fileID: 0}
  - m_GUID: ad394b306b5f1a6458492e374f8837dc
    m_Address: "\u6FC0\u52B1\u306E\u8A00\u8449\u3092\u9001\u308B"
    m_ReadOnly: 0
    m_SerializedLabels:
    - SelectionData
    m_MainAsset: {fileID: 0}
    m_TargetAsset: {fileID: 0}
  - m_GUID: e166ddbbeecbaaa46b778b587641f4ab
    m_Address: "\u5F37\u5316\u8CBB\u3092\u5897\u984D\u3059\u308B"
    m_ReadOnly: 0
    m_SerializedLabels:
    - SelectionData
    m_MainAsset: {fileID: 0}
    m_TargetAsset: {fileID: 0}
  - m_GUID: ce73709e57337a94e9d6333dfa4e1a41
    m_Address: "\u7A4D\u6975\u7684\u306B\u30E1\u30C7\u30A3\u30A2\u306B\u51FA\u6F14\u3059\u308B"
    m_ReadOnly: 0
    m_SerializedLabels:
    - SelectionData
    m_MainAsset: {fileID: 0}
    m_TargetAsset: {fileID: 0}
  - m_GUID: 4f863de1a17cd5745be08e5ff7bef000
    m_Address: "\u7C9B\u3005\u3068\u6E96\u5099\u3092\u9032\u3081\u308B"
    m_ReadOnly: 0
    m_SerializedLabels:
    - SelectionData
    m_MainAsset: {fileID: 0}
    m_TargetAsset: {fileID: 0}
  - m_GUID: f1aaf87840df9b040b0b8bab6a073b91
    m_Address: "\uFF08\u5168\u529B\u3092\u5C3D\u304F\u305D\u3046\u30C3\uFF01\uFF09"
    m_ReadOnly: 0
    m_SerializedLabels:
    - SelectionData
    m_MainAsset: {fileID: 0}
    m_TargetAsset: {fileID: 0}
  - m_GUID: 1103627541eb8954e8fb3ebabc8c3106
    m_Address: "\u305D\u3046\u3067\u3059\u306D\u30FB\u30FB\u30FB"
    m_ReadOnly: 0
    m_SerializedLabels:
    - SelectionData
    m_MainAsset: {fileID: 0}
    m_TargetAsset: {fileID: 0}
  - m_GUID: 149d3945fc72f6b4bacacac356a412da
    m_Address: "\u6C34\u3092\u304B\u3076\u308B"
    m_ReadOnly: 0
    m_SerializedLabels:
    - SelectionData
    m_MainAsset: {fileID: 0}
    m_TargetAsset: {fileID: 0}
  - m_GUID: 915363ef7688dd143a21ec0504790bf4
    m_Address: "\u51B7\u623F\u3092\u30AC\u30F3\u30AC\u30F3\u4F7F\u304A\u3046"
    m_ReadOnly: 0
    m_SerializedLabels:
    - SelectionData
    m_MainAsset: {fileID: 0}
    m_TargetAsset: {fileID: 0}
  - m_GUID: cceabca797ea9084198dff5dc80b8d80
    m_Address: "\u30FB\u30FB\u30FB"
    m_ReadOnly: 0
    m_SerializedLabels:
    - SelectionData
    m_MainAsset: {fileID: 0}
    m_TargetAsset: {fileID: 0}
  - m_GUID: d8420e5134f1b1349bbae0e2a05d3a5c
    m_Address: "\u305D\u3093\u306A\u3053\u3068\u306F\u4E00\u5207\u3001\u306A\u3044\u3067\u3059"
    m_ReadOnly: 0
    m_SerializedLabels:
    - SelectionData
    m_MainAsset: {fileID: 0}
    m_TargetAsset: {fileID: 0}
  - m_GUID: 4d659f2573bc4874ca5c09a22ce6cd49
    m_Address: "\u30E1\u30C7\u30A3\u30A2\u3092\u6F70\u3059\u304B\u30FB\u30FB\u30FB"
    m_ReadOnly: 0
    m_SerializedLabels:
    - SelectionData
    m_MainAsset: {fileID: 0}
    m_TargetAsset: {fileID: 0}
  - m_GUID: 634e493e5fbfc2b4681c69d4177411d6
    m_Address: "\u6B63\u76F4\u3057\u3093\u3069\u3044^^"
    m_ReadOnly: 0
    m_SerializedLabels:
    - SelectionData
    m_MainAsset: {fileID: 0}
    m_TargetAsset: {fileID: 0}
  - m_GUID: c4b49dbf01c8ae04390469108935a6d0
    m_Address: "\u5143\u6C17\u3057\u3066\u3044\u308B\u3088"
    m_ReadOnly: 0
    m_SerializedLabels:
    - SelectionData
    m_MainAsset: {fileID: 0}
    m_TargetAsset: {fileID: 0}
  - m_GUID: aed5e6335f58c6c4d91cb16f81fd0d33
    m_Address: "\u304A\u75B2\u308C\u3001\u7D05\u8336\u3067\u3082\u98F2\u3080\uFF1F"
    m_ReadOnly: 0
    m_SerializedLabels:
    - SelectionData
    m_MainAsset: {fileID: 0}
    m_TargetAsset: {fileID: 0}
  - m_GUID: 0a97111e536d9d9478beabd9e4e1a9b6
    m_Address: "\u304A\u75B2\u308C\u3001\u30B3\u30FC\u30D2\u30FC\u3067\u3082\u98F2\u3080\uFF1F"
    m_ReadOnly: 0
    m_SerializedLabels:
    - SelectionData
    m_MainAsset: {fileID: 0}
    m_TargetAsset: {fileID: 0}
  - m_GUID: b124c8552429eac4f86a74c42e8d0b3f
    m_Address: "\u3082\u3046\u5E30\u308B"
    m_ReadOnly: 0
    m_SerializedLabels:
    - SelectionData
    m_MainAsset: {fileID: 0}
    m_TargetAsset: {fileID: 0}
  - m_GUID: d165924241a3953448036d5f8b7ef44b
    m_Address: "\u3082\u3046\u5C11\u3057\u5F85\u3063\u3066\u307F\u3088\u3046"
    m_ReadOnly: 0
    m_SerializedLabels:
    - SelectionData
    m_MainAsset: {fileID: 0}
    m_TargetAsset: {fileID: 0}
  - m_GUID: c1c63e4b46e35ee4ebc10d819874b996
    m_Address: "\u6B69\u3044\u3066\u5411\u304B\u3046"
    m_ReadOnly: 0
    m_SerializedLabels:
    - SelectionData
    m_MainAsset: {fileID: 0}
    m_TargetAsset: {fileID: 0}
  - m_GUID: 74074b6fd1caef14384dfe13b7f3ac95
    m_Address: "\u5EA7\u3057\u3066\u5F85\u3064"
    m_ReadOnly: 0
    m_SerializedLabels:
    - SelectionData
    m_MainAsset: {fileID: 0}
    m_TargetAsset: {fileID: 0}
  - m_GUID: 80b9a9dfcefa43f41b888bd53dcaf3bf
    m_Address: "\u846C\u5100\u306B\u53C2\u5217\u3059\u308B"
    m_ReadOnly: 0
    m_SerializedLabels:
    - SelectionData
    m_MainAsset: {fileID: 0}
    m_TargetAsset: {fileID: 0}
  - m_GUID: 4cade6b2b29a0dd4088b0a134d61e62e
    m_Address: "\u65B0\u3057\u3044\u4EA4\u6E09\u5F79\u3092\u6025\u3044\u3067\u898B\u3064\u3051\u3088\u3046"
    m_ReadOnly: 0
    m_SerializedLabels:
    - SelectionData
    m_MainAsset: {fileID: 0}
    m_TargetAsset: {fileID: 0}
  - m_GUID: 8d175fb1277556549a2f3d0476d9a54f
    m_Address: "\u5927\u624B\u98F2\u6599\u30E1\u30FC\u30AB\u30FC\u306B\u5354\u529B\u3092\u983C\u3080"
    m_ReadOnly: 0
    m_SerializedLabels:
    - SelectionData
    m_MainAsset: {fileID: 0}
    m_TargetAsset: {fileID: 0}
  - m_GUID: f6306ecec8e19a04992b325e66891cee
    m_Address: "\u52DF\u96C6\u5E83\u544A\u3092\u6253\u3064"
    m_ReadOnly: 0
    m_SerializedLabels:
    - SelectionData
    m_MainAsset: {fileID: 0}
    m_TargetAsset: {fileID: 0}
  - m_GUID: 8a8e0e7a4fd0cb245a290afd1168f57f
    m_Address: "SNS\u3067\u5DE5\u4F5C\u3059\u308B"
    m_ReadOnly: 0
    m_SerializedLabels:
    - SelectionData
    m_MainAsset: {fileID: 0}
    m_TargetAsset: {fileID: 0}
  - m_GUID: 2177526092906bc4a83ce636573f9cbf
    m_Address: "\u30C6\u30EC\u30D3\u306B\u958B\u50AC\u6D3E\u3092\u51FA\u6F14\u3055\u305B\u308B"
    m_ReadOnly: 0
    m_SerializedLabels:
    - SelectionData
    m_MainAsset: {fileID: 0}
    m_TargetAsset: {fileID: 0}
  - m_GUID: c2383573d170c3d468effb979c3568ac
    m_Address: "\u53F2\u4E0A\u6700\u5927\u306E\u5927\u4F1A\u306B\u3057\u307E\u3057\u3087\u3046\uFF01"
    m_ReadOnly: 0
    m_SerializedLabels:
    - SelectionData
    m_MainAsset: {fileID: 0}
    m_TargetAsset: {fileID: 0}
  - m_GUID: 7ae5195c0738d304eb180e0877133ec5
    m_Address: "\u653F\u5E9C\u3082\u4E00\u53E3\u4E57\u308A\u307E\u305B\u3093\u304B\uFF1F"
    m_ReadOnly: 0
    m_SerializedLabels:
    - SelectionData
    m_MainAsset: {fileID: 0}
    m_TargetAsset: {fileID: 0}
  - m_GUID: 1adb3739a64988f48907639d068926a4
    m_Address: "\u6C17\u306B\u3057\u306A\u304F\u3066\u3044\u3044\u3088"
    m_ReadOnly: 0
    m_SerializedLabels:
    - SelectionData
    m_MainAsset: {fileID: 0}
    m_TargetAsset: {fileID: 0}
  - m_GUID: b180d617c83b76a43abd02e8f1dfceb9
    m_Address: "\u5FB9\u5E95\u7684\u306B\u63A2\u305D\u3046"
    m_ReadOnly: 0
    m_SerializedLabels:
    - SelectionData
    m_MainAsset: {fileID: 0}
    m_TargetAsset: {fileID: 0}
  m_ReadOnly: 0
  m_Settings: {fileID: 11400000, guid: 89914172f5b30b54c8be0a31b60c240b, type: 2}
  m_SchemaSet:
    m_Schemas:
    - {fileID: 11400000, guid: cc79e50c8ea50334bb487109b83a9f0a, type: 2}
    - {fileID: 11400000, guid: 450d50cfe1e481843ae12be900595550, type: 2}
