%YAML 1.1
%TAG !u! tag:unity3d.com,2011:
--- !u!114 &11400000
MonoBehaviour:
  m_ObjectHideFlags: 8
  m_CorrespondingSourceObject: {fileID: 0}
  m_PrefabInstance: {fileID: 0}
  m_PrefabAsset: {fileID: 0}
  m_GameObject: {fileID: 0}
  m_Enabled: 1
  m_EditorHideFlags: 0
  m_Script: {fileID: 11500000, guid: ecbd40b404522ce48a3a7fd103060e48, type: 3}
  m_Name: EventData_019
  m_EditorClassIdentifier: 
  _tag: 4
  _eventName: "\u8AB0\u304C\u305F\u3081\u306B\u5927\u4F1A\u306F\u3042\u308B"
  _eventTextList:
  - "\u30E1\u30C7\u30A3\u30A2\u3092\u4E2D\u5FC3\u306B\u53CD\u5927\u4F1A\u306E\u58F0\u306F\u65E5\u306B\u65E5\u306B\u5927\u304D\u304F\u306A\u3063\u3066\u3044\u305F\u3002"
  - "\u30B3\u30E1\u30F3\u30C6\u30FC\u30BF\u30FC\u305F\u3061\u306F\u30C6\u30AD\u30C8\u30FC\u306A\u3053\u3068\u3092\u8A71\u3057\u4E0D\u5B89\u3092\u717D\u3063\u3066\u3044\u305F\u3002"
  _selectionDataList:
  - {fileID: 11400000, guid: 8a9d5a1365d2cb640905f24222fda584, type: 2}
  - {fileID: 11400000, guid: 6258971fb0b9949439ff60733b76d27a, type: 2}
  _eventDirectionSceneName:
    _background: interview
    _foreground: Dummy
    _effectDirection: Dummy
