%YAML 1.1
%TAG !u! tag:unity3d.com,2011:
--- !u!114 &11400000
MonoBehaviour:
  m_ObjectHideFlags: 8
  m_CorrespondingSourceObject: {fileID: 0}
  m_PrefabInstance: {fileID: 0}
  m_PrefabAsset: {fileID: 0}
  m_GameObject: {fileID: 0}
  m_Enabled: 1
  m_EditorHideFlags: 0
  m_Script: {fileID: 11500000, guid: ecbd40b404522ce48a3a7fd103060e48, type: 3}
  m_Name: EventData_012
  m_EditorClassIdentifier: 
  _tag: 2
  _eventName: "\u8D70\u308C\u4F1A\u9577"
  _eventTextList:
  - "\u904B\u55B6\u59D4\u54E1\u4F1A\u306E\u4F1A\u8B70\u306E\u305F\u3081\u8ECA\u3067\u79FB\u52D5\u3057\u3066\u3044\u305F\u306E\u3060\u304C\u3002"
  - "\u4F1A\u9577\u3001\u3069\u3046\u3084\u3089\u4E8B\u6545\u306E\u5F71\u97FF\u3067\u5927\u6E0B\u6EDE\u306B\u306A\u3063\u3066\u3044\u308B\u305D\u3046\u3067\u3059\u3002"
  _selectionDataList:
  - {fileID: 11400000, guid: c1c63e4b46e35ee4ebc10d819874b996, type: 2}
  - {fileID: 11400000, guid: 74074b6fd1caef14384dfe13b7f3ac95, type: 2}
  _eventDirectionSceneName:
    _background: street001_day
    _foreground: Dummy
    _effectDirection: Dummy
