%YAML 1.1
%TAG !u! tag:unity3d.com,2011:
--- !u!114 &11400000
MonoBehaviour:
  m_ObjectHideFlags: 8
  m_CorrespondingSourceObject: {fileID: 0}
  m_PrefabInstance: {fileID: 0}
  m_PrefabAsset: {fileID: 0}
  m_GameObject: {fileID: 0}
  m_Enabled: 1
  m_EditorHideFlags: 0
  m_Script: {fileID: 11500000, guid: ecbd40b404522ce48a3a7fd103060e48, type: 3}
  m_Name: EventData_028
  m_EditorClassIdentifier: 
  _tag: 2147483647
  _eventName: "\u653F\u6CBB\u5BB6\u304B\u3089\u306E\u4F9D\u983C\u30FB\u89B3\u6226"
  _eventTextList:
  - "\u5927\u7269\u653F\u6CBB\u5BB6X\u304B\u3089\u7AF6\u6280\u89B3\u6226\u306E\u5EA7\u5E2D\u3092\u78BA\u4FDD\u3057\u3066\u307B\u3057\u3044\u3068\u983C\u307E\u308C\u305F\u3002"
  _selectionDataList:
  - {fileID: 11400000, guid: 129990dc60c728946b281efebeab3b89, type: 2}
  - {fileID: 11400000, guid: f76a1ece7b3233045ab582371dbab174, type: 2}
  _eventDirectionSceneName:
    _background: MeetingRoom
    _foreground: Politician
    _effectDirection: Dummy
