%YAML 1.1
%TAG !u! tag:unity3d.com,2011:
--- !u!114 &11400000
MonoBehaviour:
  m_ObjectHideFlags: 8
  m_CorrespondingSourceObject: {fileID: 0}
  m_PrefabInstance: {fileID: 0}
  m_PrefabAsset: {fileID: 0}
  m_GameObject: {fileID: 0}
  m_Enabled: 1
  m_EditorHideFlags: 0
  m_Script: {fileID: 11500000, guid: ecbd40b404522ce48a3a7fd103060e48, type: 3}
  m_Name: EventData_018
  m_EditorClassIdentifier: 
  _tag: 4
  _eventName: "\u3042\u308B\u3044\u306F\u88CF\u5207\u308A\u3068\u3044\u3046\u540D\u306E\u99AC"
  _eventTextList:
  - "\u3053\u3053\u6700\u8FD1\u3001\u904B\u55B6\u4F1A\u8B70\u306E\u5185\u5BB9\u304C\u30E1\u30C7\u30A3\u30A2\u306B\u7B52\u629C\u3051\u306B\u306A\u3063\u3066\u3044\u305F\u3002"
  - "\u59D4\u54E1\u4F1A\u306E\u4E2D\u3067\u306F\u5E83\u5831\u5E79\u90E8\u306E\u99AC\u8C37\u304C\u30EA\u30FC\u30AF\u3057\u3066\u3044\u308B\u3068\u5642\u306B\u306A\u3063\u3066\u3044\u305F\u3002"
  _selectionDataList:
  - {fileID: 11400000, guid: 67302c58f2b388e46abfe9279757143c, type: 2}
  - {fileID: 11400000, guid: 6258971fb0b9949439ff60733b76d27a, type: 2}
  _eventDirectionSceneName:
    _background: street001_day
    _foreground: Dummy
    _effectDirection: Dummy
