%YAML 1.1
%TAG !u! tag:unity3d.com,2011:
--- !u!114 &11400000
MonoBehaviour:
  m_ObjectHideFlags: 8
  m_CorrespondingSourceObject: {fileID: 0}
  m_PrefabInstance: {fileID: 0}
  m_PrefabAsset: {fileID: 0}
  m_GameObject: {fileID: 0}
  m_Enabled: 1
  m_EditorHideFlags: 0
  m_Script: {fileID: 11500000, guid: ecbd40b404522ce48a3a7fd103060e48, type: 3}
  m_Name: EventData_003
  m_EditorClassIdentifier: 
  _tag: 1
  _eventName: "\u5915\u65B9\u306E\u6D77"
  _eventTextList:
  - "\u9762\u5012\u306A\u3053\u3068\u306B\u306A\u3063\u305F\u306A\u30FB\u30FB\u30FB"
  _selectionDataList:
  - {fileID: 11400000, guid: 6258971fb0b9949439ff60733b76d27a, type: 2}
  - {fileID: 11400000, guid: 72dcecd7d549c2244833b3aff8fb85ed, type: 2}
  - {fileID: 11400000, guid: 4ae924099d9197d4db2ece886d8e5ad3, type: 2}
  _eventDirectionSceneName:
    _background: beach_dusk
    _foreground: Thinker
    _effectDirection: Dummy
