%YAML 1.1
%TAG !u! tag:unity3d.com,2011:
--- !u!114 &11400000
MonoBehaviour:
  m_ObjectHideFlags: 8
  m_CorrespondingSourceObject: {fileID: 0}
  m_PrefabInstance: {fileID: 0}
  m_PrefabAsset: {fileID: 0}
  m_GameObject: {fileID: 0}
  m_Enabled: 1
  m_EditorHideFlags: 0
  m_Script: {fileID: 11500000, guid: ecbd40b404522ce48a3a7fd103060e48, type: 3}
  m_Name: EventData_016
  m_EditorClassIdentifier: 
  _tag: 1
  _eventName: "\u4F1A\u9577 \u5BFE \u7DCF\u7406"
  _eventTextList:
  - "\u59D4\u54E1\u4F1A\u5358\u4F53\u3067\u306E\u904B\u55B6\u3067\u306F\u898F\u6A21\u304C\u5C0F\u3055\u3044\u3053\u3068\u306F\u3001\u5F53\u521D\u304B\u3089\u306E\u60A9\u307F\u3060\u3063\u305F\u3002"
  - "\u305D\u3053\u3067\u7DCF\u7406\u306B\u76F4\u8AC7\u5224\u3057\u3066\u3001\u653F\u5E9C\u3092\u30D0\u30C3\u30AF\u306B\u3064\u3051\u3088\u3046\u3068\u753B\u7B56\u3057\u3066\u3044\u305F\u3002"
  _selectionDataList:
  - {fileID: 11400000, guid: c2383573d170c3d468effb979c3568ac, type: 2}
  - {fileID: 11400000, guid: 7ae5195c0738d304eb180e0877133ec5, type: 2}
  _eventDirectionSceneName:
    _background: MeetingRoom
    _foreground: BusinessMan
    _effectDirection: Dummy
