%YAML 1.1
%TAG !u! tag:unity3d.com,2011:
--- !u!114 &11400000
MonoBehaviour:
  m_ObjectHideFlags: 8
  m_CorrespondingSourceObject: {fileID: 0}
  m_PrefabInstance: {fileID: 0}
  m_PrefabAsset: {fileID: 0}
  m_GameObject: {fileID: 0}
  m_Enabled: 1
  m_EditorHideFlags: 0
  m_Script: {fileID: 11500000, guid: ecbd40b404522ce48a3a7fd103060e48, type: 3}
  m_Name: EventData_001
  m_EditorClassIdentifier: 
  _tag: 1
  _eventName: "\u30AB\u30D5\u30A7\u306B\u3066"
  _eventTextList:
  - "\u521D\u3081\u307E\u3057\u3066\u3001\u3042\u306A\u305F\u304C\u7167\u5C71\u3055\u3093\u3067\u3059\u304B\u3002"
  - "\u3061\u3087\u3063\u3068\u4F55\u8A00\u3063\u3066\u308B\u304B\u5206\u304B\u308A\u307E\u305B\u3093\u306D\u3002"
  _selectionDataList:
  - {fileID: 11400000, guid: 4ae924099d9197d4db2ece886d8e5ad3, type: 2}
  - {fileID: 11400000, guid: 67302c58f2b388e46abfe9279757143c, type: 2}
  _eventDirectionSceneName:
    _background: cafe
    _foreground: Discussion
    _effectDirection: Dummy
