%YAML 1.1
%TAG !u! tag:unity3d.com,2011:
--- !u!114 &11400000
MonoBehaviour:
  m_ObjectHideFlags: 8
  m_CorrespondingSourceObject: {fileID: 0}
  m_PrefabInstance: {fileID: 0}
  m_PrefabAsset: {fileID: 0}
  m_GameObject: {fileID: 0}
  m_Enabled: 1
  m_EditorHideFlags: 0
  m_Script: {fileID: 11500000, guid: ecbd40b404522ce48a3a7fd103060e48, type: 3}
  m_Name: EventData_017
  m_EditorClassIdentifier: 
  _tag: 2147483647
  _eventName: "\u6D88\u3048\u305F\u904B\u55B6\u8CC7\u91D1"
  _eventTextList:
  - "\u904B\u55B6\u306B\u95A2\u308F\u308B\u66F8\u985E\u306B\u76EE\u3092\u901A\u3057\u3066\u3044\u305F\u3042\u308B\u65E5\u3002"
  - "\u4F1A\u9577\u5927\u5909\u3067\u3059\uFF01\u904B\u55B6\u8CC7\u91D1\uFF11\uFF10\u5104\u5186\u3092\u7D1B\u5931\u3057\u307E\u3057\u305F\u3002"
  _selectionDataList:
  - {fileID: 11400000, guid: 1adb3739a64988f48907639d068926a4, type: 2}
  - {fileID: 11400000, guid: b180d617c83b76a43abd02e8f1dfceb9, type: 2}
  _eventDirectionSceneName:
    _background: MeetingRoom
    _foreground: BusinessMan
    _effectDirection: Dummy
